{
  "module": {
    "name": "calendar_today",
    "version": "1.0.4",
    "description": "Kalendertermine des heutigen Tages",
    "module_url": "https://www.glancr.de/profiles/mattes/calendar_today",
    "download_url": "https://www.glancr.de/profiles/mattes/calendar_today/calendar_today.zip",
    "category": "Persönliche Infos",
    "last_update": "2017-01-20"
  },
  "creator": {
    "name": "Mattes Angelus",
    "contact": "ma@glancr.de",
    "website": "https://glancr.de",
    "profile": "https://www.glancr.de/profiles/mattes"
  }
}
